{
  "project_info": {
    "project_number": "120782274178",
    "project_id": "panelis-a89e1",
    "storage_bucket": "panelis-a89e1.appspot.com"
  },
  "client": [
    {
      "client_info": {
        "mobilesdk_app_id": "1:120782274178:android:193d42fb8e0324b61dbe9b",
        "android_client_info": {
          "package_name": "com.example.panelis"
        }
      },
      "oauth_client": [
        {
          "client_id": "120782274178-m01brg1ke608gv5b1be8pdrbn101o72t.apps.googleusercontent.com",
          "client_type": 3
        }
      ],
      "api_key": [
        {
          "current_key": "AIzaSyBWpnoMATiyjGd4cGu0In6-xWjZh_fc_rg"
        }
      ],
      "services": {
        "appinvite_service": {
          "other_platform_oauth_client": [
            {
              "client_id": "120782274178-m01brg1ke608gv5b1be8pdrbn101o72t.apps.googleusercontent.com",
              "client_type": 3
            }
          ]
        }
      }
    }
  ],
  "configuration_version": "1"
}